{
    "KPlugin": {
        "Description": "Enables or disables touchpad",
        "Description[ar]": "يفعّل لوحة اللمس أو يعطّلها",
        "Description[az]": "Toxunma panelini aktiv edir və söndürür",
        "Description[bg]": "Активира или деактивира тъчпада",
        "Description[ca@valencia]": "Activa o desactiva el ratolí tàctil",
        "Description[ca]": "Activa o desactiva el ratolí tàctil",
        "Description[cs]": "Povolí/zakáže touchpad",
        "Description[da]": "Aktiverer eller deaktiverer touchpad",
        "Description[de]": "Aktiviert oder deaktiviert das Touchpad",
        "Description[en_GB]": "Enables or disables touchpad",
        "Description[es]": "Activa o desactiva el panel táctil",
        "Description[eu]": "Ukimen-sagua gaitzen edo desgaitzen du",
        "Description[fi]": "Ottaa kosketuslevyn käyttöön tai poistaa sen käytöstä",
        "Description[fr]": "Active ou désactive le pavé tactile",
        "Description[hu]": "Érintőtábla be/kikapcsolása",
        "Description[ia]": "Habilita o dishabilita le pannello tactile (touchpad)",
        "Description[id]": "Fungsikan atau nonfungsikan touchpad",
        "Description[is]": "Virkjar eða gerir snertiplatta óvirkan",
        "Description[it]": "Abilita o disabilita il touchpad",
        "Description[ja]": "タッチパッドを有効化または無効化する",
        "Description[ka]": "თაჩპედის ჩართ/გამორთ",
        "Description[ko]": "터치패드 활성/비활성",
        "Description[lt]": "Įjungia arba išjungia jutiklinį kilimėlį",
        "Description[nl]": "Schakelt het touchpad in of uit",
        "Description[nn]": "Slår på/av styreplate",
        "Description[pa]": "ਟੱਚਪੈਡ ਸਮਰੱਥ ਜਾਂ ਅਸਮਰੱਥ ਕਰੋ",
        "Description[pl]": "Włącza lub wyłącza gładzik",
        "Description[pt]": "Activa ou desactiva o rato por toque",
        "Description[pt_BR]": "Ativa ou desativa o touchpad",
        "Description[ro]": "Activează sau dezactivează zona tactilă",
        "Description[ru]": "Включает или выключает сенсорную панель",
        "Description[sk]": "Povolí alebo zakáže touchpad",
        "Description[sl]": "Omogoči ali onemogoči sledilno ploščico",
        "Description[sv]": "Aktiverar eller inaktiverar tryckplattan",
        "Description[ta]": "தொடுபலகையை இயக்கும் அல்லது முடக்கும்",
        "Description[tr]": "Dokunmatik yüzeyi etkinleştirir veya devre dışı bırakır",
        "Description[uk]": "Вмикає або вимикає сенсорну панель",
        "Description[vi]": "Bật hoặc tắt bàn cảm ứng",
        "Description[x-test]": "xxEnables or disables touchpadxx",
        "Description[zh_CN]": "启用/禁用触摸板",
        "Name": "Touchpad",
        "Name[ar]": "لوحة اللمس",
        "Name[ast]": "Panel táctil",
        "Name[az]": "Toxunma Paneli",
        "Name[bg]": "Тъчпад",
        "Name[ca@valencia]": "Ratolí tàctil",
        "Name[ca]": "Ratolí tàctil",
        "Name[cs]": "Touchpad",
        "Name[da]": "Touchpad",
        "Name[de]": "Touchpad",
        "Name[el]": "Επιφάνεια αφής",
        "Name[en_GB]": "Touchpad",
        "Name[es]": "Panel táctil",
        "Name[et]": "Puutepadi",
        "Name[eu]": "Ukimen-sagua",
        "Name[fi]": "Kosketuslevy",
        "Name[fr]": "Pavé tactile",
        "Name[gl]": "Área táctil",
        "Name[he]": "לוח מגע",
        "Name[hu]": "Érintőtábla",
        "Name[ia]": "Touchpad",
        "Name[id]": "Touchpad",
        "Name[is]": "Snertiplatti",
        "Name[it]": "Touchpad",
        "Name[ja]": "タッチパッド",
        "Name[ka]": "თაჩპედი",
        "Name[ko]": "터치패드",
        "Name[lt]": "Jutiklinis kilimėlis",
        "Name[nl]": "Touchpad",
        "Name[nn]": "Styre­plate",
        "Name[pa]": "ਟੱਚਪੈਡ",
        "Name[pl]": "Gładzik",
        "Name[pt]": "Rato por Toque",
        "Name[pt_BR]": "Touchpad",
        "Name[ro]": "Zonă tactilă",
        "Name[ru]": "Сенсорная панель",
        "Name[sk]": "Touchpad",
        "Name[sl]": "Sledilna ploščica",
        "Name[sr@ijekavian]": "Додирник",
        "Name[sr@ijekavianlatin]": "Dodirnik",
        "Name[sr@latin]": "Dodirnik",
        "Name[sr]": "Додирник",
        "Name[sv]": "Tryckplatta",
        "Name[ta]": "தொடுபலகை",
        "Name[tg]": "Лавҳаи ламсӣ",
        "Name[tr]": "Dokunmatik Yüzey",
        "Name[uk]": "Сенсорна панель",
        "Name[vi]": "Bàn cảm ứng",
        "Name[x-test]": "xxTouchpadxx",
        "Name[zh_CN]": "触摸板",
        "Name[zh_TW]": "觸控板"
    },
    "X-KDE-Kded-autoload": true,
    "X-KDE-Kded-load-on-demand": true,
    "X-KDE-OnlyShowOnQtPlatforms": [
        "xcb"
    ]
}
