{
    "KPlugin": {
        "Authors": [
            {
                "Email": "hein@kde.org",
                "Name": "Eike Hein",
                "Name[ar]": "Eike Hein",
                "Name[az]": "Eike Hein",
                "Name[bg]": "Eike Hein",
                "Name[ca@valencia]": "Eike Hein",
                "Name[ca]": "Eike Hein",
                "Name[cs]": "Eike Hein",
                "Name[da]": "Eike Hein",
                "Name[de]": "Eike Hein",
                "Name[en_GB]": "Eike Hein",
                "Name[es]": "Eike Hein",
                "Name[eu]": "Eike Hein",
                "Name[fi]": "Eike Hein",
                "Name[fr]": "Eike Hein",
                "Name[hu]": "Eike Hein",
                "Name[ia]": "Eike Hein",
                "Name[id]": "Eike Hein",
                "Name[is]": "Eike Hein",
                "Name[it]": "Eike Hein",
                "Name[ja]": "Eike Hein",
                "Name[ka]": "აიკე ჰაინი",
                "Name[ko]": "Eike Hein",
                "Name[lt]": "Eike Hein",
                "Name[nl]": "Eike Hein",
                "Name[nn]": "Eike Hein",
                "Name[pa]": "ਇਕੀ ਹੀਇਨ",
                "Name[pl]": "Eike Hein",
                "Name[pt]": "Eike Hein",
                "Name[pt_BR]": "Eike Hein",
                "Name[ro]": "Eike Hein",
                "Name[ru]": "Eike Hein",
                "Name[sk]": "Eike Hein",
                "Name[sl]": "Eike Hein",
                "Name[sv]": "Eike Hein",
                "Name[ta]": "எய்கே ஹைன்",
                "Name[tr]": "Eike Hein",
                "Name[uk]": "Eike Hein",
                "Name[vi]": "Eike Hein",
                "Name[x-test]": "xxEike Heinxx",
                "Name[zh_CN]": "Eike Hein"
            }
        ],
        "Category": "Application Launchers",
        "Description": "A launcher based on cascading popup menus",
        "Description[ar]": "مطلق مبنيّ على قوائم منبثقة متتالية",
        "Description[az]": "Pilləli açılan menyularla başladıcı",
        "Description[bg]": "Стартер с каскадни изскачащи менюта",
        "Description[ca@valencia]": "Un iniciador basat en menús emergents en cascada",
        "Description[ca]": "Un llançador basat en menús emergents en cascada",
        "Description[cs]": "Spouštěč založený na vyskakovacích nabídkách v kaskádě",
        "Description[da]": "En starter baseret på pop op-menuer i kaskader",
        "Description[de]": "Ein Anwendungsstarter auf der Grundlage von kaskadierenden Aufklappmenüs",
        "Description[en_GB]": "A launcher based on cascading popup menus",
        "Description[es]": "Un lanzador basado en menús emergentes en cascada",
        "Description[eu]": "Menu abiaratu agerkarietan oinarritutako abiarazle bat",
        "Description[fi]": "Käynnistin, joka perustuu hierarkkisiin ponnahdusvalikoihin",
        "Description[fr]": "Un lanceur reposant sur des menus contextuels en cascade",
        "Description[hu]": "Felugró menükre épülő alkalmazásindító",
        "Description[ia]": "Un lanceator basate sur menus de popup  a cascada",
        "Description[id]": "Sebuah peluncur berbasiskan pada menu-menu sembul berkaskade",
        "Description[it]": "Un avviatore basato su menu a comparsa in cascata",
        "Description[ja]": "階層ごとのポップアップメニューに基づいたランチャー",
        "Description[ka]": "კასკადურ პოპაპ მენიუზე დაფუძნებული გამშვები",
        "Description[ko]": "연계 팝업 메뉴에 기반한 실행기",
        "Description[lt]": "Paleidyklė, pagrįsta pakopiniais iškylančiaisias meniu",
        "Description[nl]": "Een starter gebaseerd op achter elkaar liggende popup-menu's",
        "Description[nn]": "Startar basert på menyhierarki",
        "Description[pl]": "Wielopoziomowe menu rozsuwane",
        "Description[pt]": "Um módulo de lançamento com base em menus em cascata",
        "Description[pt_BR]": "Um lançador com base em menus em cascata",
        "Description[ro]": "Lansator bazat pe meniuri contextuale în cascadă",
        "Description[ru]": "Меню запуска приложений на основе выпадающих меню",
        "Description[sk]": "Spúšťač založený na kaskádových vyskakovacích ponukách",
        "Description[sl]": "Zaganjalnik, ki temelji na kaskadnih pojavnih menijih",
        "Description[sv]": "Ett startprogram baserat på kaskadmenyer",
        "Description[ta]": "ஒன்றுக்குள் மற்றொன்று உட்பொதிந்த தெரித்தெழும் பட்டிகளை பயன்படுத்தும் ஏவி",
        "Description[tr]": "Basamaklı açılan menü tabanlı bir başlatıcı",
        "Description[uk]": "Засіб запуску, заснований на вкладених контекстних меню",
        "Description[vi]": "Một trình khởi chạy dựa trên các trình đơn bật lên xếp tầng",
        "Description[x-test]": "xxA launcher based on cascading popup menusxx",
        "Description[zh_CN]": "基于层叠弹出菜单设计的启动器",
        "Description[zh_TW]": "基於彈出式串連選單的啟動器",
        "EnabledByDefault": true,
        "Icon": "start-here-kde",
        "Id": "org.kde.plasma.kicker",
        "License": "GPL-2.0+",
        "Name": "Application Menu",
        "Name[ar]": "قائمة التّطبيقات",
        "Name[ast]": "Menú d'aplicaciones",
        "Name[az]": "Tətbiq menyusu",
        "Name[bg]": "Меню с приложения",
        "Name[bs]": "Aplikacijski meni",
        "Name[ca@valencia]": "Menú d'aplicacions",
        "Name[ca]": "Menú d'aplicacions",
        "Name[cs]": "Nabídka aplikací",
        "Name[da]": "Programmenu",
        "Name[de]": "Anwendungsmenü",
        "Name[el]": "Μενού εφαρμογών",
        "Name[en_GB]": "Application Menu",
        "Name[eo]": "Aplikaĵomenuo",
        "Name[es]": "Menú de aplicaciones",
        "Name[et]": "Rakenduste menüü",
        "Name[eu]": "Aplikazio-menua",
        "Name[fi]": "Sovelluskäynnistin",
        "Name[fr]": "Menu des applications",
        "Name[gl]": "Menú de aplicacións",
        "Name[he]": "תפריט יישומים",
        "Name[hu]": "Alkalmazásmenü",
        "Name[ia]": "Menu de application",
        "Name[id]": "Menu Aplikasi",
        "Name[is]": "Forritavalmynd",
        "Name[it]": "Menu dell'applicazione",
        "Name[ja]": "アプリケーションメニュー",
        "Name[ka]": "აპლიკაციების მენიუ",
        "Name[ko]": "프로그램 메뉴",
        "Name[lt]": "Programų meniu",
        "Name[ml]": "പ്രയോഗസൂചിക",
        "Name[mr]": "अनुप्रयोग मेन्यु",
        "Name[nb]": "Programmeny",
        "Name[nds]": "Programmmenü",
        "Name[nl]": "Menu Toepassingen",
        "Name[nn]": "Program­meny",
        "Name[pa]": "ਐਪਲੀਕੇਸ਼ਨ ਮੇਨੂ",
        "Name[pl]": "Menu rozsuwane programów",
        "Name[pt]": "Menu da Aplicação",
        "Name[pt_BR]": "Menu de aplicativos",
        "Name[ro]": "Meniu de aplicații",
        "Name[ru]": "Классическое меню приложений",
        "Name[sk]": "Ponuka aplikácií",
        "Name[sl]": "Meni programa",
        "Name[sr@ijekavian]": "мени програма",
        "Name[sr@ijekavianlatin]": "meni programa",
        "Name[sr@latin]": "meni programa",
        "Name[sr]": "мени програма",
        "Name[sv]": "Programmeny",
        "Name[ta]": "செயலி பட்டி",
        "Name[tg]": "Феҳристи барномаҳо",
        "Name[tr]": "Uygulama Menüsü",
        "Name[uk]": "Меню програм",
        "Name[vi]": "Trình đơn ứng dụng",
        "Name[x-test]": "xxApplication Menuxx",
        "Name[zh_CN]": "应用程序菜单",
        "Name[zh_TW]": "應用程式選單",
        "ServiceTypes": [
            "Plasma/Applet"
        ],
        "Version": "2.0"
    },
    "X-Plasma-API": "declarativeappletscript",
    "X-Plasma-MainScript": "ui/main.qml",
    "X-Plasma-Provides": [
        "org.kde.plasma.launchermenu"
    ]
}
